An R package to quickly obtain clean and tidy men's baseball play by play data • baseballr
…
data <- daily_batter_bref("2015-08-01", "2015-10-03") %>%
  head()

## Data courtesy of Baseball-Reference.com. Please consider supporting Baseball-Reference by signing up for a Statehead account: https://stathead.com

In terms of metric calculation, the package allows the user to calculate the consistency of team scoring and run prevention for any year using team_consistency():

team_consistency(2015)

## Data courtesy of Baseball-Reference.com. Please consider supporting Baseball-Reference by signing up for a Stathead account: https://stathead.com

## # A tibble: 30 x 5
##    Team  Con_R Con_RA Con_R_Ptile Con_RA_Ptile
##    <chr> <dbl>  <dbl>       <dbl>        <dbl>
##  1 ARI    0.37   0.36          17           15
##  2 ATL    0.41   0.4           88           63
##  3 BAL    0.4    0.38          70           42
##  4 BOS    0.39   0.4           52           63
##  5 CHC    0.38   0.41          30           85
##  6 CHW    0.39   0.4           52           63
##  7 CIN    0.41   0.36          88           15
##  8 CLE    0.41   0.4           88           63
##  9 COL    0.35   0.34           7            3
## 10 DET    0.39   0.38          52           42
## # ... with 20 more rows
…
