…
## Author

Saiem Gilani

## Examples

``` r
# \donttest{
  try(espn_college_baseball_game_team_linescores(event_id = "401778093", team_id = "113"))
#> ── ESPN COLLEGE-BASEBALL Competitor Linescores ────── baseballr 2.0.0 ──
#> ℹ Data updated: 2026-06-24 02:04:16 UTC
#> # A tibble: 27 × 7
#>    league           event_id  team_id period value display_value source 
#>    <chr>            <chr>     <chr>    <int> <dbl> <chr>         <chr>  
#>  1 college-baseball 401778093 113          1     0 0             1      
#>  2 college-baseball 401778093 113          1     0 0             basic/…
#>  3 college-baseball 401778093 113          1     0 0             basic  
#>  4 college-baseball 401778093 113          2     0 0             1      
#>  5 college-baseball 401778093 113          2     0 0             basic/…
#>  6 college-baseball 401778093 113          2     0 0             basic  
#>  7 college-baseball 401778093 113          3     1 1             1      
#>  8 college-baseball 401778093 113          3     1 1             basic/…
#>  9 college-baseball 401778093 113          3     1 1             basic  
#> 10 college-baseball 401778093 113          4     0 0             1      
#> # ℹ 17 more rows
…
