…
## Examples

``` r
# \donttest{
try(espn_mlb_standings(year = 2021))
#> ── ESPN MLB Standings Information from ESPN.com ───── baseballr 2.0.0 ──
#> ℹ Data updated: 2026-06-08 04:38:58 UTC
#> # A tibble: 30 × 41
#>    team_id team   otlosses otwins avgpointsagainst avgpointsfor clincher
#>      <int> <chr>  <chr>    <chr>             <dbl>        <dbl>    <dbl>
#>  1      26 San F… 9        9                  3.67         4.96        5
#>  2      19 Los A… 12       6                  3.46         5.12        2
#>  3      30 Tampa… 12       7                  4.02         5.29        5
#>  4       8 Milwa… 8        10                 3.85         4.56        1
#>  5      18 Houst… 8        9                  4.06         5.33        1
#>  6       4 Chica… 6        5                  3.93         4.91        1
#>  7       2 Bosto… 5        10                 4.62         5.12        2
#>  8      10 New Y… 8        10                 4.13         4.39        2
#>  9      14 Toron… 8        3                  4.09         5.22        4
#> 10      24 St. L… 2        7                  4.15         4.36        2
#> # ℹ 20 more rows
#> # ℹ 34 more variables: differential <dbl>, divisionwinpercent <dbl>,
#> #   gamesbehind <dbl>, gamesplayed <chr>, leaguewinpercent <dbl>,
#> #   losses <dbl>, playoffseed <dbl>, pointdifferential <chr>,
#> #   points <chr>, pointsagainst <chr>, pointsfor <chr>, streak <dbl>,
#> #   ties <chr>, winpercent <dbl>, wins <dbl>,
#> #   divisiongamesbehind <chr>, divisionpercent <chr>, …
…
