…
## Author

Saiem Gilani

## Examples

``` r
# \donttest{
  try(espn_college_baseball_calendar(season = 2025))
#> ── ESPN COLLEGE-BASEBALL Calendar from ESPN.com ───── baseballr 2.0.0 ──
#> ℹ Data updated: 2026-06-12 12:22:54 UTC
#> # A tibble: 112 × 12
#>    season season_type season_type_label season_start_date
#>    <chr>  <chr>       <chr>             <chr>            
#>  1 2025   NA          NA                2024-07-06T04:00Z
#>  2 2025   NA          NA                2024-07-06T04:00Z
#>  3 2025   NA          NA                2024-07-06T04:00Z
#>  4 2025   NA          NA                2024-07-06T04:00Z
#>  5 2025   NA          NA                2024-07-06T04:00Z
#>  6 2025   NA          NA                2024-07-06T04:00Z
#>  7 2025   NA          NA                2024-07-06T04:00Z
#>  8 2025   NA          NA                2024-07-06T04:00Z
#>  9 2025   NA          NA                2024-07-06T04:00Z
#> 10 2025   NA          NA                2024-07-06T04:00Z
#> # ℹ 102 more rows
#> # ℹ 8 more variables: season_end_date <chr>, calendar_type <chr>,
#> #   label <chr>, alternate_label <chr>, detail <chr>, value <chr>,
#> #   start_date <chr>, end_date <chr>
…
