…
## Author

Saiem Gilani

## Examples

``` r
# \donttest{
  espn_mlb_injuries()
#> ── ESPN MLB Injury Information from ESPN.com ──────── baseballr 2.0.0 ──
#> ℹ Data updated: 2026-06-08 03:18:47 UTC
#> # A tibble: 30 × 12
#>    team_id athlete_id athlete_name position status date  type  side 
#>    <chr>   <chr>      <chr>        <chr>    <chr>  <chr> <chr> <chr>
#>  1 NA      NA         NA           NA       NA     NA    NA    NA   
#>  2 NA      NA         NA           NA       NA     NA    NA    NA   
#>  3 NA      NA         NA           NA       NA     NA    NA    NA   
#>  4 NA      NA         NA           NA       NA     NA    NA    NA   
#>  5 NA      NA         NA           NA       NA     NA    NA    NA   
#>  6 NA      NA         NA           NA       NA     NA    NA    NA   
#>  7 NA      NA         NA           NA       NA     NA    NA    NA   
#>  8 NA      NA         NA           NA       NA     NA    NA    NA   
#>  9 NA      NA         NA           NA       NA     NA    NA    NA   
#> 10 NA      NA         NA           NA       NA     NA    NA    NA   
#> # ℹ 20 more rows
#> # ℹ 4 more variables: returns_at <chr>, short_comment <chr>,
#> #   long_comment <chr>, season <int>
…
