Get ESPN College Baseball Team Schedule — espn_college_baseball_team_schedule • baseballr
…
    Author

    Saiem Gilani

    Examples

# \donttest{
  espn_college_baseball_team_schedule(team_id = "59", season = 2025)
#> ── ESPN COLLEGE-BASEBALL Team Schedule from ESPN.com ───────────────────
#> ℹ Data updated: 2026-06-12 12:39:08 UTC
#> # A tibble: 57 × 21
#>    event_id  season season_type  week date  name  short_name opponent_id
#>    <chr>      <int>       <int> <int> <chr> <chr> <chr>      <chr>      
#>  1 401750605   2025          NA    NA 2025… Ohio… OSU @ ASU  NA         
#>  2 401750606   2025          NA    NA 2025… Ohio… OSU @ ASU  NA         
#>  3 401750607   2025          NA    NA 2025… Ohio… OSU @ ASU  NA         
#>  4 401750608   2025          NA    NA 2025… Aust… APSU @ ASU NA         
#>  5 401750609   2025          NA    NA 2025… Oral… ORU @ ASU  NA         
#>  6 401750610   2025          NA    NA 2025… Oral… ORU @ ASU  NA         
#>  7 401750611   2025          NA    NA 2025… Oral… ORU @ ASU  NA         
#>  8 401750612   2025          NA    NA 2025… Ariz… ASU @ UCLA NA         
#>  9 401750613   2025          NA    NA 2025… Ariz… ASU @ UCLA NA         
#> 10 401751014   2025          NA    NA 2025… Minn… MINN @ ASU NA         
#> # ℹ 47 more rows
#> # ℹ 13 more variables: opponent_abbrev <chr>, home_away <chr>,
#> #   neutral_site <lgl>, conference_competition <lgl>, venue_id <chr>,
#> #   venue_name <chr>, venue_city <chr>, venue_state <chr>,
#> #   broadcast <chr>, result <chr>, team_score <chr>,
#> #   opponent_score <chr>, winner <lgl>
…
