…
## Author

Saiem Gilani

## Examples

``` r
# \donttest{
try(espn_college_baseball_pbp(game_id = "401778093"))
#> New names:
#> • `` -> `...45`
#> • `` -> `...46`
#> ── ESPN MLB Play-by-Play Information from ESPN.com ── baseballr 2.0.0 ──
#> ℹ Data updated: 2026-06-12 11:40:33 UTC
#> # A tibble: 581 × 72
#>    id           sequence_number text  away_score home_score scoring_play
#>    <chr>        <chr>           <chr>      <int>      <int> <lgl>       
#>  1 40177809300… 1               "Top…          0          0 FALSE       
#>  2 40177809300… 1               "E. …          0          0 FALSE       
#>  3 40177809300… 2               "Pit…          0          0 FALSE       
#>  4 40177809300… 3               "Pit…          0          0 FALSE       
#>  5 40177809300… 4               "Pit…          0          0 FALSE       
#>  6 40177809300… 5               "C. …          0          0 FALSE       
#>  7 40177809300… 6                NA            0          0 FALSE       
#>  8 40177809300… 1               "E. …          0          0 FALSE       
#>  9 40177809300… 2               "C. …          1          0 FALSE       
#> 10 40177809300… 3               "C. …          1          0 FALSE       
#> # ℹ 571 more rows
#> # ℹ 66 more variables: score_value <int>, wallclock <chr>,
#> #   at_bat_id <chr>, summary_type <chr>, outs <int>, type <list<chr>>,
#> #   bat_order <int>, at_bat_pitch_number <int>, alternative_play <chr>,
#> #   type_id <int>, type_text <chr>, type_abbreviation <chr>,
#> #   period_type <chr>, period_number <int>, period_display_value <chr>,
#> #   team_id <int>, pitch_count_balls <int>, …
…
