…
Saiem Gilani

## Examples

``` r
# \donttest{
try(espn_college_baseball_game_all(game_id = "401778093"))
#> New names:
#> • `` -> `...45`
#> • `` -> `...46`
#> $Plays
#> ── ESPN MLB Play-by-Play Information from ESPN.com ── baseballr 2.0.0 ──
#> ℹ Data updated: 2026-06-12 11:54:55 UTC
#> # A tibble: 581 × 72
#>    id           sequence_number text  away_score home_score scoring_play
#>    <chr>        <chr>           <chr>      <int>      <int> <lgl>       
#>  1 40177809300… 1               "Top…          0          0 FALSE       
#>  2 40177809300… 1               "E. …          0          0 FALSE       
#>  3 40177809300… 2               "Pit…          0          0 FALSE       
#>  4 40177809300… 3               "Pit…          0          0 FALSE       
#>  5 40177809300… 4               "Pit…          0          0 FALSE       
#>  6 40177809300… 5               "C. …          0          0 FALSE       
#>  7 40177809300… 6                NA            0          0 FALSE       
#>  8 40177809300… 1               "E. …          0          0 FALSE       
#>  9 40177809300… 2               "C. …          1          0 FALSE       
#> 10 40177809300… 3               "C. …          1          0 FALSE       
#> # ℹ 571 more rows
#> # ℹ 66 more variables: score_value <int>, wallclock <chr>,
#> #   at_bat_id <chr>, summary_type <chr>, outs <int>, type <list<chr>>,
#> #   bat_order <int>, at_bat_pitch_number <int>, alternative_play <chr>,
#> #   type_id <int>, type_text <chr>, type_abbreviation <chr>,
#> #   period_type <chr>, period_number <int>, period_display_value <chr>,
#> #   team_id <int>, pitch_count_balls <int>, …
…
#>       <int>  <int>       <int> <date>     <dttm>                <int>
#> 1 401778093   2025           5 2025-06-15 2025-06-15 19:00:00     146
#> 2 401778093   2025           5 2025-06-15 2025-06-15 19:00:00     113
#> # ℹ 89 more variables: team_uid <chr>, team_slug <chr>,
#> #   team_location <chr>, team_name <chr>, team_abbreviation <chr>,
#> #   team_display_name <chr>, team_short_display_name <chr>,
#> #   team_color <chr>, team_alternate_color <chr>, team_logo <chr>,
#> #   batting_hit_by_pitch <chr>, batting_strikeouts <chr>,
#> #   batting_rb_is <chr>, batting_sac_hits <chr>, batting_hits <chr>,
#> #   batting_stolen_bases <chr>, batting_walks <chr>, …
#> 
#> $Player
#> ── ESPN MLB Player Box Information from ESPN.com ──── baseballr 2.0.0 ──
#> ℹ Data updated: 2026-06-12 11:54:55 UTC
#> # A tibble: 25 × 35
#>     game_id season season_type game_date  game_date_time      stat_group
#>       <int>  <int>       <int> <date>     <dttm>              <chr>     
#>  1   4.02e8   2025           5 2025-06-15 2025-06-15 19:00:00 batting   
#>  2   4.02e8   2025           5 2025-06-15 2025-06-15 19:00:00 batting   
#>  3   4.02e8   2025           5 2025-06-15 2025-06-15 19:00:00 batting   
#>  4   4.02e8   2025           5 2025-06-15 2025-06-15 19:00:00 batting   
#>  5   4.02e8   2025           5 2025-06-15 2025-06-15 19:00:00 batting   
#>  6   4.02e8   2025           5 2025-06-15 2025-06-15 19:00:00 batting   
#>  7   4.02e8   2025           5 2025-06-15 2025-06-15 19:00:00 batting   
#>  8   4.02e8   2025           5 2025-06-15 2025-06-15 19:00:00 batting   
#>  9   4.02e8   2025           5 2025-06-15 2025-06-15 19:00:00 batting   
#> 10   4.02e8   2025           5 2025-06-15 2025-06-15 19:00:00 pitching  
#> # ℹ 15 more rows
#> # ℹ 29 more variables: team_id <int>, team_name <chr>,
#> #   team_abbreviation <chr>, team_display_name <chr>, athlete_id <int>,
#> #   athlete_display_name <chr>, athlete_short_name <chr>,
#> #   athlete_position_name <chr>, athlete_position_abbreviation <chr>,
#> #   starter <lgl>, bat_order <int>, active <lgl>, h_ab <chr>, ab <chr>,
#> #   r <chr>, h <chr>, rbi <chr>, hr <chr>, bb <chr>, k <chr>, …
…
