…
## Author

Saiem Gilani

## Examples

``` r
# \donttest{
try(espn_college_baseball_teams())
#> ── ESPN College Baseball Teams Information from ESPN.com ───────────────
#> ℹ Data updated: 2026-06-12 12:23:18 UTC
#> # A tibble: 437 × 22
#>    abbreviation color  display_name        team_id team  logo  logo_dark
#>    <chr>        <chr>  <chr>                 <int> <chr> <chr> <chr>    
#>  1 ACU          000000 Abilene Christian …     315 Abil… http… https://…
#>  2 AFA          004A7B Air Force Falcons       155 Air … http… https://…
#>  3 AKR          0A1E5B Akron Zips              316 Akron http… https://…
#>  4 AAMU         790000 Alabama A&M Bulldo…     317 Alab… http… https://…
#>  5 ALA          A42D47 Alabama Crimson Ti…     148 Alab… http… https://…
#>  6 ALST         603913 Alabama State Horn…     318 Alab… http… https://…
#>  7 ALCN         C1B881 Alcorn State Braves     260 Alco… http… https://…
#>  8 ALMA         NA     Alma Scots              821 Alma  http… https://…
#>  9 AMER         c41130 American Universit…     319 Amer… http… https://…
#> 10 ANDC         NA     Anderson (IN) Rave…     822 Ande… http… https://…
#> # ℹ 427 more rows
#> # ℹ 15 more variables: logos_href_3 <chr>, logos_href_4 <chr>,
#> #   logos_href_5 <chr>, logos_href_6 <chr>, logos_href_7 <chr>,
#> #   logos_href_8 <chr>, logos_href_9 <chr>, logos_href_10 <chr>,
#> #   logos_href_11 <chr>, logos_href_12 <chr>, logos_href_13 <chr>,
#> #   logos_href_14 <chr>, mascot <chr>, nickname <chr>, short_name <chr>
…
