…
## Author

Saiem Gilani

## Examples

``` r
# \donttest{
  espn_mlb_team_schedule(team_id = "13", season = 2025)
#> ── ESPN MLB Team Schedule from ESPN.com ───────────── baseballr 2.0.0 ──
#> ℹ Data updated: 2026-06-12 12:23:54 UTC
#> # A tibble: 162 × 21
#>    event_id  season season_type  week date  name  short_name opponent_id
#>    <chr>      <int>       <int> <int> <chr> <chr> <chr>      <chr>      
#>  1 401694916   2025          NA    13 2025… Bost… BOS @ TEX  NA         
#>  2 401694926   2025          NA    13 2025… Bost… BOS @ TEX  NA         
#>  3 401694938   2025          NA    13 2025… Bost… BOS @ TEX  NA         
#>  4 401694953   2025          NA    13 2025… Bost… BOS @ TEX  NA         
#>  5 401694964   2025          NA    13 2025… Texa… TEX @ CIN  NA         
#>  6 401694977   2025          NA    13 2025… Texa… TEX @ CIN  NA         
#>  7 401694992   2025          NA    14 2025… Texa… TEX @ CIN  NA         
#>  8 401695017   2025          NA    14 2025… Tamp… TB @ TEX   NA         
#>  9 401695032   2025          NA    14 2025… Tamp… TB @ TEX   NA         
#> 10 401695047   2025          NA    14 2025… Tamp… TB @ TEX   NA         
#> # ℹ 152 more rows
#> # ℹ 13 more variables: opponent_abbrev <chr>, home_away <chr>,
#> #   neutral_site <lgl>, conference_competition <lgl>, venue_id <chr>,
#> #   venue_name <chr>, venue_city <chr>, venue_state <chr>,
#> #   broadcast <chr>, result <chr>, team_score <chr>,
#> #   opponent_score <chr>, winner <lgl>
…
