Scrape Batter Leaderboards from FanGraphs — fg_batter_leaders • baseballr
…
    Examples

# \donttest{
  try(fg_batter_leaders(x = 2015, y = 2015, qual = 400))
#> ── MLB Batter Leaders data from FanGraphs.com ─────── baseballr 1.3.0 ──
#> ℹ Data updated: 2022-09-08 23:45:13 UTC
#> # A tibble: 211 × 289
#>    playerid `#`   Season Name  Team    Age     G    AB    PA     H  `1B`
#>    <chr>    <chr> <chr>  <chr> <chr> <dbl> <dbl> <dbl> <dbl> <dbl> <dbl>
#>  1 11579    1     2015   Bryc… WSN      22   153   521   654   172    91
#>  2 4314     2     2015   Joey… CIN      31   158   545   695   171   107
#>  3 9218     3     2015   Paul… ARI      27   159   567   695   182   109
#>  4 10155    4     2015   Mike… LAA      23   159   575   682   172    93
#>  5 1744     5     2015   Migu… DET      32   119   429   511   145    98
#>  6 5038     6     2015   Josh… TOR      29   158   620   711   184   100
#>  7 2434     7     2015   Nels… SEA      34   152   590   655   178   111
#>  8 2151     8     2015   Edwi… TOR      32   146   528   624   146    76
#>  9 9272     9     2015   Chri… BAL      29   160   573   670   150    72
#> 10 1887     10    2015   Jose… TOR      34   153   543   666   136    64
#> # … with 201 more rows, and 278 more variables: `2B` <dbl>, `3B` <dbl>,
#> #   HR <dbl>, R <dbl>, RBI <dbl>, BB <dbl>, IBB <dbl>, SO <dbl>,
#> #   HBP <dbl>, SF <dbl>, SH <dbl>, GDP <dbl>, SB <dbl>, CS <dbl>,
#> #   AVG <dbl>, GB <dbl>, FB <dbl>, LD <dbl>, IFFB <dbl>, Pitches <dbl>,
#> #   Balls <dbl>, Strikes <dbl>, IFH <dbl>, BU <dbl>, BUH <dbl>,
#> #   BB_pct <dbl>, K_pct <dbl>, BB_K <dbl>, OBP <dbl>, SLG <dbl>,
#> #   OPS <dbl>, ISO <dbl>, BABIP <dbl>, GB_FB <dbl>, LD_pct <dbl>, …
…
