…
## Examples

``` r
# \donttest{
  try(fg_batter_leaders(startseason = 2023, endseason = 2023))
#> ── MLB Player Batting Leaders data from FanGraphs.com ──────────────────
#> ℹ Data updated: 2026-06-08 04:39:15 UTC
#> # A tibble: 1,457 × 447
#>    Season team_name Bats  xMLBAMID PlayerNameRoute  PlayerName  playerid
#>     <int> <chr>     <chr>    <int> <chr>            <chr>          <int>
#>  1   2023 ATL       R       660670 Ronald Acuna Jr. Ronald Acu…    18401
#>  2   2023 LAD       L       518692 Freddie Freeman  Freddie Fr…     5361
#>  3   2023 LAD       R       605141 Mookie Betts     Mookie Bet…    13611
#>  4   2023 ATL       L       621566 Matt Olson       Matt Olson     14344
#>  5   2023 LAA       L       660271 Shohei Ohtani    Shohei Oht…    19755
#>  6   2023 TEX       R       543760 Marcus Semien    Marcus Sem…    12533
#>  7   2023 TEX       L       608369 Corey Seager     Corey Seag…    13624
#>  8   2023 SDP       L       665742 Juan Soto        Juan Soto      20123
#>  9   2023 KCR       R       677951 Bobby Witt Jr.   Bobby Witt…    25764
#> 10   2023 SEA       R       677594 Julio Rodriguez  Julio Rodr…    23697
#> # ℹ 1,447 more rows
#> # ℹ 440 more variables: Age <int>, AgeRng <chr>, SeasonMin <int>,
#> #   SeasonMax <int>, G <int>, AB <int>, PA <int>, H <int>, `1B` <int>,
#> #   `2B` <int>, `3B` <int>, HR <int>, R <int>, RBI <int>, BB <int>,
#> #   IBB <int>, SO <int>, HBP <int>, SF <int>, SH <int>, GDP <int>,
#> #   SB <int>, CS <int>, AVG <dbl>, GB <int>, FB <int>, LD <int>,
#> #   IFFB <int>, Pitches <int>, Balls <int>, Strikes <int>, IFH <int>, …
…
