Scrape Fielder Leaderboards from FanGraphs — fg_fielder_leaders • baseballr
…
    Examples

# \donttest{
  try(fg_fielder_leaders(startseason = 2023, endseason = 2023))
#> ── MLB Player Fielding Leaders data from FanGraphs.com ─────────────────
#> ℹ Data updated: 2026-06-12 13:45:37 UTC
#> # A tibble: 2,293 × 63
#>    Season team_name xMLBAMID PlayerNameRoute   PlayerName       playerid
#>     <int> <chr>        <int> <chr>             <chr>               <int>
#>  1   2023 SFG         672275 Patrick Bailey    Patrick Bailey      27478
#>  2   2023 - - -       595978 Austin Hedges     Austin Hedges       12976
#>  3   2023 MIL         661388 William Contreras William Contrer…    20503
#>  4   2023 NYM         682626 Francisco Alvarez Francisco Alvar…    26121
#>  5   2023 CHC         621020 Dansby Swanson    Dansby Swanson      18314
#>  6   2023 TEX         641680 Jonah Heim        Jonah Heim          16930
#>  7   2023 ATL         669221 Sean Murphy       Sean Murphy         19352
#>  8   2023 TOR         672386 Alejandro Kirk    Alejandro Kirk      22581
#>  9   2023 SEA         663728 Cal Raleigh       Cal Raleigh         21534
#> 10   2023 COL         678662 Ezequiel Tovar    Ezequiel Tovar      24064
#> # ℹ 2,283 more rows
#> # ℹ 57 more variables: SeasonMin <int>, SeasonMax <int>, Pos <chr>,
#> #   Position <chr>, G <int>, GS <int>, Inn <dbl>, PO <int>, A <int>,
#> #   E <int>, FE <int>, TE <int>, DP <int>, DPS <int>, DPT <int>,
#> #   DPF <int>, SB <int>, CS <int>, PB <int>, WP <int>, FP <dbl>,
#> #   rSB <int>, rGFP <int>, rSZ <dbl>, rCERA <int>, DRS <int>,
#> #   Defense <dbl>, CStrikes <dbl>, CFraming <dbl>, dFRP <int>, …
…
