Scrape Pitcher Game Logs from FanGraphs — fg_pitcher_game_logs • baseballr
…
    Examples

# \donttest{
  try(fg_pitcher_game_logs(playerid = "19755", year = 2023))
#> ── MLB Pitcher Game Log data from FanGraphs.com ───── baseballr 2.0.0 ──
#> ℹ Data updated: 2026-06-08 03:45:06 UTC
#> # A tibble: 23 × 367
#>    PlayerName    playerid Date  Opp   teamid season Team  HomeAway   Age
#>    <chr>            <int> <chr> <chr>  <int>  <int> <chr> <chr>    <int>
#>  1 Shohei Ohtani    19755 2023… CIN        1   2023 LAA   H           28
#>  2 Shohei Ohtani    19755 2023… SFG        1   2023 LAA   H           28
#>  3 Shohei Ohtani    19755 2023… SEA        1   2023 LAA   H           28
#>  4 Shohei Ohtani    19755 2023… @DET       1   2023 LAA   A           28
#>  5 Shohei Ohtani    19755 2023… PIT        1   2023 LAA   H           28
#>  6 Shohei Ohtani    19755 2023… HOU        1   2023 LAA   H           28
#>  7 Shohei Ohtani    19755 2023… @SDP       1   2023 LAA   A           28
#>  8 Shohei Ohtani    19755 2023… CHW        1   2023 LAA   H           28
#>  9 Shohei Ohtani    19755 2023… LAD        1   2023 LAA   H           28
#> 10 Shohei Ohtani    19755 2023… @TEX       1   2023 LAA   A           28
#> # ℹ 13 more rows
#> # ℹ 358 more variables: W <dbl>, L <dbl>, ERA <dbl>, G <dbl>, GS <dbl>,
#> #   QS <dbl>, CG <dbl>, ShO <dbl>, SV <dbl>, HLD <dbl>, BS <dbl>,
#> #   IP <dbl>, TBF <dbl>, H <dbl>, R <dbl>, ER <dbl>, HR <dbl>,
#> #   BB <dbl>, IBB <dbl>, HBP <dbl>, WP <dbl>, BK <dbl>, SO <dbl>,
#> #   `K/9` <dbl>, `BB/9` <dbl>, `H/9` <dbl>, `K/BB` <dbl>, `IFH%` <dbl>,
#> #   `BUH%` <dbl>, GB <dbl>, FB <dbl>, LD <dbl>, IFFB <dbl>, …
…
