…
## Examples

``` r
# \donttest{
  try(fg_team_fielder(startseason = 2023, endseason = 2023, qual = 150))
#> ── MLB Team Fielding data from FanGraphs.com ──────── baseballr 2.0.0 ──
#> ℹ Data updated: 2026-06-12 11:41:51 UTC
#> # A tibble: 30 × 60
#>    Season team_name SeasonMin SeasonMax Pos   Position     G    GS   Inn
#>     <int> <chr>         <int>     <int> <chr> <chr>    <int> <int> <int>
#>  1   2023 Brewers        2023      2023 ---   ---       2225  1458 12987
#>  2   2023 Rangers        2023      2023 ---   ---       2121  1458 12927
#>  3   2023 Pirates        2023      2023 ---   ---       2298  1458 12870
#>  4   2023 Royals         2023      2023 ---   ---       2210  1458 12681
#>  5   2023 Giants         2023      2023 ---   ---       2319  1458 12912
#>  6   2023 Blue Jays      2023      2023 ---   ---       2231  1458 13065
#>  7   2023 Mariners       2023      2023 ---   ---       2166  1458 13044
#>  8   2023 Diamondb…      2023      2023 ---   ---       2235  1458 12918
#>  9   2023 Yankees        2023      2023 ---   ---       2160  1458 12957
#> 10   2023 Padres         2023      2023 ---   ---       2128  1458 12969
#> # ℹ 20 more rows
#> # ℹ 51 more variables: PO <int>, A <int>, E <int>, FE <int>, TE <int>,
#> #   DP <int>, DPS <int>, DPT <int>, DPF <int>, Scp <int>, SB <int>,
#> #   CS <int>, PB <int>, WP <int>, FP <dbl>, rSB <int>, rGDP <int>,
#> #   rARM <int>, rGFP <int>, rPM <int>, rSZ <dbl>, rTS <int>,
#> #   rCERA <int>, DRS <int>, BIZ <int>, Plays <int>, RZR <dbl>,
#> #   OOZ <int>, ARM <dbl>, DPR <dbl>, RngR <dbl>, ErrR <dbl>, …
…
