Scrape Team Pitcher Leaderboards from FanGraphs — fg_team_pitcher • baseballr
…
    Examples

# \donttest{
  try(fg_team_pitcher(startseason = 2015, endseason = 2015, qual = 150))
#> ── MLB Team Pitching data from FanGraphs.com ──────── baseballr 1.6.0 ──
#> ℹ Data updated: 2024-04-13 21:55:10 UTC
#> # A tibble: 30 × 346
#>    Season team_name SeasonMin SeasonMax     W     L   ERA     G    GS
#>     <int> <chr>         <int>     <int> <int> <int> <dbl> <int> <int>
#>  1   2015 CHC            2015      2015    97    65  3.36   714   162
#>  2   2015 WSN            2015      2015    83    79  3.62   630   162
#>  3   2015 CLE            2015      2015    81    80  3.68   637   161
#>  4   2015 STL            2015      2015   100    62  2.94   677   162
#>  5   2015 LAD            2015      2015    92    70  3.46   677   162
#>  6   2015 PIT            2015      2015    98    64  3.23   662   162
#>  7   2015 NYM            2015      2015    90    72  3.45   647   162
#>  8   2015 HOU            2015      2015    86    76  3.57   644   162
#>  9   2015 NYY            2015      2015    87    75  4.03   659   162
#> 10   2015 CHW            2015      2015    76    86  3.98   576   162
#> # ℹ 20 more rows
#> # ℹ 337 more variables: QS <int>, CG <int>, ShO <int>, SV <int>,
#> #   BS <int>, IP <dbl>, TBF <int>, H <int>, R <int>, ER <int>,
#> #   HR <int>, BB <int>, IBB <int>, HBP <int>, WP <int>, BK <int>,
#> #   SO <int>, GB <int>, FB <int>, LD <int>, IFFB <int>, Pitches <int>,
#> #   Balls <int>, Strikes <int>, RS <int>, IFH <int>, BU <int>,
#> #   BUH <int>, K_9 <dbl>, BB_9 <dbl>, K_BB <dbl>, H_9 <dbl>, …
…
