Scrape Team Batter Leaderboards from FanGraphs — fg_team_batter • baseballr
…
    Examples

# \donttest{
  try(fg_team_batter(startseason = 2015, endseason = 2015, qual = 200))
#> ── MLB Team Batting data from FanGraphs.com ───────── baseballr 2.0.0 ──
#> ℹ Data updated: 2026-06-12 12:24:10 UTC
#> # A tibble: 30 × 412
#>    Season team_name SeasonMin SeasonMax     G    AB    PA     H  `1B`
#>     <int> <chr>         <int>     <int> <int> <int> <int> <int> <int>
#>  1   2015 TOR            2015      2015  2337  5509  6231  1480   923
#>  2   2015 SFG            2015      2015  2342  5565  6153  1486  1023
#>  3   2015 LAD            2015      2015  2379  5385  6090  1346   870
#>  4   2015 HOU            2015      2015  2333  5459  6073  1363   829
#>  5   2015 CHC            2015      2015  2406  5491  6200  1341   868
#>  6   2015 NYM            2015      2015  2325  5527  6145  1351   862
#>  7   2015 PIT            2015      2015  2431  5631  6285  1462  1003
#>  8   2015 STL            2015      2015  2406  5484  6139  1386   922
#>  9   2015 KCR            2015      2015  2263  5575  6116  1497  1016
#> 10   2015 TEX            2015      2015  2358  5511  6187  1419   936
#> # ℹ 20 more rows
#> # ℹ 403 more variables: `2B` <int>, `3B` <int>, HR <int>, R <int>,
#> #   RBI <int>, BB <int>, IBB <int>, SO <int>, HBP <int>, SF <int>,
#> #   SH <int>, GDP <int>, SB <int>, CS <int>, AVG <dbl>, GB <int>,
#> #   FB <int>, LD <int>, IFFB <int>, Pitches <int>, Balls <int>,
#> #   Strikes <int>, IFH <int>, BU <int>, BUH <int>, BB_pct <dbl>,
#> #   K_pct <dbl>, BB_K <dbl>, OBP <dbl>, SLG <dbl>, OPS <dbl>, …
…
