Calculate FIP and related metrics for any set of data — fip_plus • baseballr
…
    Examples

# \donttest{
  try({
    df <- bref_daily_pitcher("2015-04-05", "2015-04-30")
    fip_plus(df)
  })
#> ── MLB Daily Pitcher data from baseball-reference.com ──────────────────
#> ℹ Data updated: 2026-06-12 03:18:26 UTC
#> # A tibble: 453 × 49
#>    bbref_id season Name    Age Level Team      G    GS     W     L    SV
#>    <chr>     <int> <chr> <dbl> <chr> <chr> <dbl> <dbl> <dbl> <dbl> <dbl>
#>  1 hembrhe…   2015 Heat…    26 Maj-… Bost…     1     0    NA    NA    NA
#>  2 hollade…   2015 Dere…    28 Maj-… Texas     1     1    NA     1    NA
#>  3 edwarjo…   2015 Jon …    27 Maj-… Texas     1     0    NA    NA    NA
#>  4 mazzoco…   2015 Cory…    25 Maj-… San …     2     0    NA    NA    NA
#>  5 gonzase…   2015 Seve…    22 Maj-… Phil…     1     1    NA     1    NA
#>  6 cornejo…   2015 John…    26 Maj-… Atla…     1     0    NA    NA    NA
#>  7 rearich…   2015 Chri…    27 Maj-… San …     5     0    NA    NA    NA
#>  8 vealdo01   2015 Donn…    30 Maj-… Atla…     1     0    NA    NA    NA
#>  9 rondojo…   2015 Jorg…    27 Maj-… Colo…     1     0    NA    NA    NA
#> 10 ranauan…   2015 Anth…    25 Maj-… Texas     1     1    NA     1    NA
#> # ℹ 443 more rows
#> # ℹ 38 more variables: IP <dbl>, H <dbl>, R <dbl>, ER <dbl>, uBB <dbl>,
#> #   BB <dbl>, SO <dbl>, HR <dbl>, HBP <dbl>, ERA <dbl>, AB <dbl>,
#> #   X1B <dbl>, X2B <dbl>, X3B <dbl>, IBB <dbl>, GDP <dbl>, SF <dbl>,
#> #   SB <dbl>, CS <dbl>, PO <dbl>, BF <dbl>, Pit <dbl>, Str <dbl>,
#> #   StL <dbl>, StS <dbl>, GB.FB <dbl>, LD <dbl>, PU <dbl>, WHIP <dbl>,
#> #   BAbip <dbl>, SO9 <dbl>, SO.W <dbl>, SO_perc <dbl>, …
…
