…
  Fox Bifrost team id.

## Value

A `baseballr_data` tibble: `team_id`, `category`, `stat`,
`stat_abbreviation`, `player`, `value`.

## Examples

``` r
 try(fox_mlb_team_stats("1")) 
#> ── Fox Sports MLB team_stats ──────────────────────── baseballr 2.0.0 ──
#> ℹ Data updated: 2026-06-24 02:05:39 UTC
#> # A tibble: 29 × 6
#>    team_id category     stat              stat_abbreviation player value
#>    <chr>   <chr>        <chr>             <chr>             <chr>  <chr>
#>  1 1       PLAYER STATS Batting Average   AVG               Taylo… .258 
#>  2 1       PLAYER STATS Home Runs         HR                Pete … 18   
#>  3 1       PLAYER STATS Runs Batted In    RBI               Pete … 53   
#>  4 1       PLAYER STATS Stolen Bases      SB                Leody… 9    
#>  5 1       PLAYER STATS Runs Created      RC                Pete … 48.46
#>  6 1       PLAYER STATS Isolated Power    ISO               Pete … .223 
#>  7 1       PLAYER STATS Wins              W                 Brand… 6    
#>  8 1       PLAYER STATS Earned Run Avera… ERA               Kyle … 3.64 
#>  9 1       PLAYER STATS Strikeouts        SO                Kyle … 94   
#> 10 1       PLAYER STATS Pitches / Inning  PC/IP             Shane… 16.2 
#> # ℹ 19 more rows
```
