…
## Examples

``` r
# \donttest{
  try(mlb_sports_players(sport_id = 1, season = 2021))
#> ── MLB Sports - Players data from MLB.com ─────────── baseballr 2.0.0 ──
#> ℹ Data updated: 2026-06-08 11:09:26 UTC
#> # A tibble: 1,508 × 53
#>    player_id full_name        link   first_name last_name primary_number
#>        <int> <chr>            <chr>  <chr>      <chr>     <chr>         
#>  1    472551 Fernando Abad    /api/… Fernando   Abad      58            
#>  2    676265 Cory Abbott      /api/… Cory       Abbott    15            
#>  3    656061 Albert Abreu     /api/… Albert     Abreu     84            
#>  4    650556 Bryan Abreu      /api/… Bryan      Abreu     66            
#>  5    547989 José Abreu       /api/… José       Abreu     79            
#>  6    642758 Domingo Acevedo  /api/… Domingo    Acevedo   68            
#>  7    660670 Ronald Acuña Jr. /api/… Ronald     Acuña     13            
#>  8    592094 Jason Adam       /api/… Jason      Adam      60            
#>  9    642715 Willy Adames     /api/… Willy      Adames    27            
#> 10    613534 Austin Adams     /api/… Austin     Adams     54            
#> # ℹ 1,498 more rows
#> # ℹ 47 more variables: birth_date <chr>, current_age <int>,
#> #   birth_city <chr>, birth_country <chr>, height <chr>, weight <int>,
#> #   active <lgl>, use_name <chr>, use_last_name <chr>,
#> #   middle_name <chr>, boxscore_name <chr>, nick_name <chr>,
#> #   gender <chr>, is_player <lgl>, is_verified <lgl>,
#> #   pronunciation <chr>, mlb_debut_date <chr>, name_first_last <chr>, …
…
