MLB Stats Leaders — mlb_stats_leaders • baseballr
…
    Examples

# \donttest{
 try(mlb_stats_leaders(leader_categories='homeRuns',sport_id=1, season = 2021))
#> ── MLB Stats Leaders data from MLB.com ────────────── baseballr 2.0.0 ──
#> ℹ Data updated: 2026-06-08 03:20:38 UTC
#> # A tibble: 306 × 23
#>    leader_category  rank value season num_teams team_id team_name       
#>    <chr>           <int> <chr> <chr>      <int>   <int> <chr>           
#>  1 homeRuns            1 48    2021           1     141 Toronto Blue Ja…
#>  2 homeRuns            1 48    2021           1     118 Kansas City Roy…
#>  3 homeRuns            3 46    2021           1     108 Los Angeles Ang…
#>  4 homeRuns            4 45    2021           1     141 Toronto Blue Ja…
#>  5 homeRuns            5 42    2021           1     135 San Diego Padres
#>  6 homeRuns            6 39    2021           1     136 Seattle Mariners
#>  7 homeRuns            6 39    2021           1     147 New York Yankees
#>  8 homeRuns            6 39    2021           1     139 Tampa Bay Rays  
#>  9 homeRuns            6 39    2021           1     133 Oakland Athleti…
#> 10 homeRuns           10 38    2021           1     111 Boston Red Sox  
#> # ℹ 296 more rows
#> # ℹ 16 more variables: team_link <chr>, league_id <int>,
#> #   league_name <chr>, league_link <chr>, person_id <int>,
#> #   person_full_name <chr>, person_link <chr>, person_first_name <chr>,
#> #   person_last_name <chr>, sport_id <int>, sport_link <chr>,
#> #   sport_abbreviation <chr>, stat_group <chr>, total_splits <int>,
#> #   game_type_id <chr>, game_type_description <chr>
…
