…
## Examples

``` r
# \donttest{
 try(mlb_all_star_write_ins(league_id = 103, season = 2021))
#> ── MLB All-Star Write-Ins data from MLB.com ───────── baseballr 2.0.0 ──
#> ℹ Data updated: 2026-06-12 13:46:11 UTC
#> # A tibble: 490 × 45
#>    player_id full_name      link     first_name last_name primary_number
#>        <int> <chr>          <chr>    <chr>      <chr>     <chr>         
#>  1    595978 Austin Hedges  /api/v1… Austin     Hedges    27            
#>  2    605194 Jharel Cotton  /api/v1… Jharel     Cotton    NA            
#>  3    451584 Wade Davis     /api/v1… Wade       Davis     40            
#>  4    663554 Casey Mize     /api/v1… Casey      Mize      12            
#>  5    609280 Miguel Andujar /api/v1… Miguel     Andujar   41            
#>  6    521230 Liam Hendriks  /api/v1… Liam       Hendriks  31            
#>  7    642048 Tayler Saucedo /api/v1… Tayler     Saucedo   55            
#>  8    451594 Dexter Fowler  /api/v1… William    Fowler    25            
#>  9    667674 Jack Kruger    /api/v1… Timothy    Kruger    NA            
#> 10    667670 Brent Rooker   /api/v1… Terry      Rooker    25            
#> # ℹ 480 more rows
#> # ℹ 39 more variables: birth_date <chr>, current_age <int>,
#> #   birth_city <chr>, birth_state_province <chr>, birth_country <chr>,
#> #   height <chr>, weight <int>, active <lgl>, use_name <chr>,
#> #   use_last_name <chr>, middle_name <chr>, boxscore_name <chr>,
#> #   nick_name <chr>, gender <chr>, is_player <lgl>, is_verified <lgl>,
#> #   draft_year <int>, mlb_debut_date <chr>, name_first_last <chr>, …
…
