MLB Teams Stats Leaders — mlb_teams_stats_leaders • baseballr
…
    Examples

# \donttest{
 try(mlb_teams_stats_leaders(leader_categories='homeRuns',sport_id=1, season = 2021))
#> ── MLB Teams Stats Leaders data from MLB.com ──────── baseballr 1.5.0 ──
#> ℹ Data updated: 2023-03-21 18:46:49 UTC
#> # A tibble: 90 × 11
#>    leader_c…¹  rank value season team_id team_…² team_…³ stat_…⁴ total…⁵
#>    <chr>      <int> <chr> <chr>    <int> <chr>   <chr>   <chr>     <int>
#>  1 homeRuns       1 262   2021       141 Toront… /api/v… hitting      30
#>  2 homeRuns       2 241   2021       137 San Fr… /api/v… hitting      30
#>  3 homeRuns       3 239   2021       144 Atlant… /api/v… hitting      30
#>  4 homeRuns       4 237   2021       119 Los An… /api/v… hitting      30
#>  5 homeRuns       5 228   2021       142 Minnes… /api/v… hitting      30
#>  6 homeRuns       6 222   2021       113 Cincin… /api/v… hitting      30
#>  7 homeRuns       6 222   2021       147 New Yo… /api/v… hitting      30
#>  8 homeRuns       6 222   2021       139 Tampa … /api/v… hitting      30
#>  9 homeRuns       9 221   2021       117 Housto… /api/v… hitting      30
#> 10 homeRuns      10 219   2021       111 Boston… /api/v… hitting      30
#> # … with 80 more rows, 2 more variables: game_type_id <chr>,
#> #   game_type_description <chr>, and abbreviated variable names
#> #   ¹​leader_category, ²​team_name, ³​team_link, ⁴​stat_group,
#> #   ⁵​total_splits
…
