…
## Examples

``` r
# \donttest{
  try(mlb_draft(year = 2020))
#> ── MLB Draft data from MLB.com ────────────────────── baseballr 2.0.0 ──
#> ℹ Data updated: 2026-06-12 12:40:39 UTC
#> # A tibble: 160 × 77
#>    bis_player_id pick_round pick_number display_pick_number
#>            <int> <chr>            <int>               <int>
#>  1        807255 1                    1                   1
#>  2        788201 1                    2                   2
#>  3        792606 1                    3                   3
#>  4        771881 1                    4                   4
#>  5        415542 1                    5                   5
#>  6        784616 1                    6                   6
#>  7       5009176 1                    7                   7
#>  8        807429 1                    8                   8
#>  9       5005747 1                    9                   9
#> 10        780070 1                   10                  10
#> # ℹ 150 more rows
#> # ℹ 73 more variables: round_pick_number <int>, rank <int>,
#> #   pick_value <chr>, signing_bonus <chr>, scouting_report <chr>,
#> #   blurb <chr>, headshot_link <chr>, is_drafted <lgl>, is_pass <lgl>,
#> #   year <chr>, home_city <chr>, home_state <chr>, home_country <chr>,
#> #   school_name <chr>, school_school_class <chr>, school_country <chr>,
#> #   school_state <chr>, person_id <int>, person_full_name <chr>, …
…
