…
## Examples

``` r
# \donttest{
  try(mlb_game_changes(updated_since = "2021-08-10T19:08:24.000004Z", sport_id = 1))
#> ── MLB Game Changes data from MLB.com ─────────────── baseballr 2.0.0 ──
#> ℹ Data updated: 2026-06-12 13:46:19 UTC
#> # A tibble: 1,000 × 69
#>    date      total_items total_events total_games total_games_in_progr…¹
#>    <chr>           <int>        <int>       <int>                  <int>
#>  1 1999-10-…           1            0           1                      0
#>  2 1999-10-…           1            0           1                      0
#>  3 1999-10-…           2            0           2                      0
#>  4 1999-10-…           2            0           2                      0
#>  5 1999-10-…           2            0           2                      0
#>  6 1999-10-…           2            0           2                      0
#>  7 1999-10-…           1            0           1                      0
#>  8 1999-10-…           1            0           1                      0
#>  9 1999-10-…           1            0           1                      0
#> 10 1999-10-…           1            0           1                      0
#> # ℹ 990 more rows
#> # ℹ abbreviated name: ¹​total_games_in_progress
#> # ℹ 64 more variables: game_pk <int>, game_guid <chr>, link <chr>,
#> #   game_type <chr>, season <chr>, game_date <chr>,
#> #   official_date <chr>, is_tie <lgl>, game_number <int>,
#> #   public_facing <lgl>, double_header <chr>, gameday_type <chr>,
#> #   tiebreaker <chr>, calendar_event_id <chr>, season_display <chr>, …
…
