Find MLB Rosters by Roster Type — mlb_rosters • baseballr
…
    Examples

# \donttest{
  try(mlb_rosters(team_id = 109, season = 2018, roster_type = 'active'))
#> ── MLB Roster data from MLB.com ───────────────────── baseballr 2.0.0 ──
#> ℹ Data updated: 2026-06-12 12:41:06 UTC
#> # A tibble: 49 × 15
#>    jersey_number person_id person_full_name person_link    position_code
#>    <chr>             <int> <chr>            <chr>          <chr>        
#>  1 13               605113 Nick Ahmed       /api/v1/peopl… 6            
#>  2 35               542882 Matt Andriese    /api/v1/peopl… 1            
#>  3 5                488671 Alex Avila       /api/v1/peopl… 2            
#>  4 33               545332 Jake Barrett     /api/v1/peopl… 1            
#>  5 31               502202 Brad Boxberger   /api/v1/peopl… 1            
#>  6 61               611093 Silvino Bracho   /api/v1/peopl… 1            
#>  7 25               605151 Archie Bradley   /api/v1/peopl… 1            
#>  8 19               593647 Sócrates Brito   /api/v1/peopl… 9            
#>  9 32               453329 Clay Buchholz    /api/v1/peopl… 1            
#> 10 40               605177 Andrew Chafin    /api/v1/peopl… 1            
#> # ℹ 39 more rows
#> # ℹ 10 more variables: position_name <chr>, position_type <chr>,
#> #   position_abbreviation <chr>, status_code <chr>,
#> #   status_description <chr>, link <chr>, team_id <int>,
#> #   roster_type <chr>, season <dbl>, date <chr>
…
