…
## Examples

``` r
# \donttest{
  try(mlb_teams_stats(stat_type = 'season', stat_group = 'hitting', season = 2021))
#> ── MLB Teams Stats data from MLB.com ──────────────── baseballr 2.0.0 ──
#> ℹ Data updated: 2026-06-08 03:20:41 UTC
#> # A tibble: 50 × 43
#>    total_splits season  rank games_played ground_outs air_outs  runs
#>           <int> <chr>  <int>        <int>       <int>    <int> <int>
#>  1          371 2021       1            2           8        6    10
#>  2          371 2021       2            2          14       19    18
#>  3          371 2021       3            2          14        8     9
#>  4          371 2021       4            1           4       17     7
#>  5          371 2021       5            2          18       15    19
#>  6          371 2021       6            1           9        7    13
#>  7          371 2021       7           63         546      495   500
#>  8          371 2021       8            1           8        4     9
#>  9          371 2021       9            3          24       26    23
#> 10          371 2021      10           66         593      594   438
#> # ℹ 40 more rows
#> # ℹ 36 more variables: doubles <int>, triples <int>, home_runs <int>,
#> #   strike_outs <int>, base_on_balls <int>, intentional_walks <int>,
#> #   hits <int>, hit_by_pitch <int>, avg <chr>, at_bats <int>,
#> #   obp <chr>, slg <chr>, ops <chr>, caught_stealing <int>,
#> #   stolen_bases <int>, stolen_base_percentage <chr>,
#> #   caught_stealing_percentage <chr>, ground_into_double_play <int>, …
…
