…
## Examples

``` r
# \donttest{
  try(mlb_all_star_final_vote(league_id = 103, season = 2021))
#> ── MLB All-Star Final Votes data from MLB.com ─────── baseballr 2.0.0 ──
#> ℹ Data updated: 2026-06-12 12:15:38 UTC
#> # A tibble: 25 × 49
#>    player_id full_name         link  first_name last_name primary_number
#>        <int> <chr>             <chr> <chr>      <chr>     <chr>         
#>  1    547989 José Abreu        /api… José       Abreu     79            
#>  2    665489 Vladimir Guerrer… /api… Vladimir   Guerrero  27            
#>  3    493329 Yuli Gurriel      /api… Yulieski   Gurriel   10            
#>  4    518934 DJ LeMahieu       /api… David      LeMahieu  26            
#>  5    543760 Marcus Semien     /api… Marcus     Semien    10            
#>  6    666182 Bo Bichette       /api… Bo         Bichette  19            
#>  7    593428 Xander Bogaerts   /api… Xander     Bogaerts  2             
#>  8    621043 Carlos Correa     /api… Carlos     Correa    1             
#>  9    608324 Alex Bregman      /api… Alexander  Bregman   3             
#> 10    646240 Rafael Devers     /api… Rafael     Devers    16            
#> # ℹ 15 more rows
#> # ℹ 43 more variables: birth_date <chr>, current_age <int>,
#> #   birth_city <chr>, birth_country <chr>, height <chr>, weight <int>,
#> #   active <lgl>, use_name <chr>, use_last_name <chr>,
#> #   middle_name <chr>, boxscore_name <chr>, nick_name <chr>,
#> #   gender <chr>, name_matrilineal <chr>, is_player <lgl>,
#> #   is_verified <lgl>, pronunciation <chr>, last_played_date <chr>, …
…
