…
## Examples

``` r
# \donttest{
  try(mlb_team_alumni(team_id = 137, stat_group = 'hitting', season = 2021))
#> ── MLB Team Alumni data from MLB.com ──────────────── baseballr 2.0.0 ──
#> ℹ Data updated: 2026-06-09 20:44:02 UTC
#> # A tibble: 43 × 46
#>    player_id player_full_name  link  first_name last_name primary_number
#>        <int> <chr>             <chr> <chr>      <chr>     <chr>         
#>  1    501303 Ehire Adrianza    /api… Ehire      Adrianza  6             
#>  2    542881 Tyler Anderson    /api… Tyler      Anderson  31            
#>  3    641312 Shaun Anderson    /api… Shaun      Anderson  64            
#>  4    624414 Christian Arroyo  /api… Christian  Arroyo    39            
#>  5    623214 Abiatal Avelino   /api… Abiatal    Avelino   NA            
#>  6    642772 Luis Alexander B… /api… Luis       Basabe    NA            
#>  7    542963 Rob Brantly       /api… Robert     Brantly   NA            
#>  8    518516 Madison Bumgarner /api… Madison    Bumgarner 40            
#>  9    502239 Trevor Cahill     /api… Trevor     Cahill    NA            
#> 10    593525 Orlando Calixte   /api… Orlando    Calixte   16            
#> # ℹ 33 more rows
#> # ℹ 40 more variables: birth_date <chr>, current_age <int>,
#> #   birth_city <chr>, birth_country <chr>, height <chr>, weight <int>,
#> #   active <lgl>, use_name <chr>, use_last_name <chr>,
#> #   middle_name <chr>, boxscore_name <chr>, nick_name <chr>,
#> #   gender <chr>, name_matrilineal <chr>, is_player <lgl>,
#> #   is_verified <lgl>, pronunciation <chr>, last_played_date <chr>, …
…
