…
## Examples

``` r
# \donttest{
  try(mlb_schedule_postseason_series(season = 2021, sport_id = 1))
#> ── MLB Schedule - Post-season Series data from MLB.com ─────────────────
#> ℹ Data updated: 2026-06-08 03:46:10 UTC
#> # A tibble: 38 × 72
#>    total_items total_games total_games_in_progress game_pk game_guid    
#>          <int>       <int>                   <int>   <int> <chr>        
#>  1           6           6                       0  660897 c4148dd0-dc0…
#>  2           6           6                       0  660908 8644ecec-18e…
#>  3           6           6                       0  660910 404871b2-3eb…
#>  4           6           6                       0  660902 d8d931dc-494…
#>  5           6           6                       0  660911 ad3ef28d-964…
#>  6           6           6                       0  660906 35a3ffd6-2d4…
#>  7           1           1                       0  660938 42ec699b-0d4…
#>  8           1           1                       0  660937 c4cc7a37-663…
#>  9           5           5                       0  660936 99c5d8e9-125…
#> 10           5           5                       0  660934 0e6aa0d8-ec6…
#> # ℹ 28 more rows
#> # ℹ 67 more variables: link <chr>, game_type <chr>, season <chr>,
#> #   game_date <chr>, official_date <chr>, is_tie <lgl>,
#> #   is_featured_game <lgl>, game_number <int>, public_facing <lgl>,
#> #   double_header <chr>, gameday_type <chr>, tiebreaker <chr>,
#> #   calendar_event_id <chr>, season_display <chr>, day_night <chr>,
#> #   description <chr>, scheduled_innings <int>, …
…
