Retrieve draft pick information by year — mlb_draft • baseballr
…
    Examples

# \donttest{
  try(mlb_draft(year = 2020))
#> ── MLB Draft data from MLB.com ────────────────────── baseballr 1.5.0 ──
#> ℹ Data updated: 2023-03-20 13:54:17 UTC
#> # A tibble: 160 × 75
#>    bis_pla…¹ pick_…² pick_…³ round…⁴  rank pick_…⁵ signi…⁶ scout…⁷ blurb
#>        <int> <chr>     <int>   <int> <int> <chr>   <chr>   <chr>   <chr>
#>  1    807255 1             1       1     1 8415300 8416300 https:… "Tor…
#>  2    788201 1             2       2    10 7789900 5200000 https:… "A 3…
#>  3    792606 1             3       3     9 7221200 6700000 https:… "Mey…
#>  4    771881 1             4       4     3 6664000 6670000 https:… "Tho…
#>  5    415542 1             5       5     2 6180700 7000825 https:… "Mar…
#>  6    784616 1             6       6     4 5742900 5700000 https:… "Han…
#>  7   5009176 1             7       7     5 5432400 5432400 https:… "Gon…
#>  8    807429 1             8       8    16 5176900 4300000 https:… "Has…
#>  9   5005747 1             9       9     7 4949100 5000000 https:… "The…
#> 10    780070 1            10      10     8 4739900 4670000 https:… "One…
#> # … with 150 more rows, 66 more variables: headshot_link <chr>,
#> #   is_drafted <lgl>, is_pass <lgl>, year <chr>, home_city <chr>,
#> #   home_state <chr>, home_country <chr>, school_name <chr>,
#> #   school_school_class <chr>, school_country <chr>,
#> #   school_state <chr>, person_id <int>, person_full_name <chr>,
#> #   person_link <chr>, person_first_name <chr>, person_last_name <chr>,
#> #   person_primary_number <chr>, person_birth_date <chr>, …
…
