Retrieve Homerun Derby data — mlb_homerun_derby • baseballr
…
    Examples

# \donttest{
  try(mlb_homerun_derby(game_pk = 511101))
#> ── MLB Homerun Derby data from MLB.com ────────────── baseballr 2.0.0 ──
#> ℹ Data updated: 2026-06-08 01:57:10 UTC
#> # A tibble: 396 × 61
#>    game_pk event_name         event_date event_type_code event_type_name
#>      <int> <chr>              <chr>      <chr>           <chr>          
#>  1  511101 All-Star Workout … 2017-07-1… O               Other          
#>  2  511101 All-Star Workout … 2017-07-1… O               Other          
#>  3  511101 All-Star Workout … 2017-07-1… O               Other          
#>  4  511101 All-Star Workout … 2017-07-1… O               Other          
#>  5  511101 All-Star Workout … 2017-07-1… O               Other          
#>  6  511101 All-Star Workout … 2017-07-1… O               Other          
#>  7  511101 All-Star Workout … 2017-07-1… O               Other          
#>  8  511101 All-Star Workout … 2017-07-1… O               Other          
#>  9  511101 All-Star Workout … 2017-07-1… O               Other          
#> 10  511101 All-Star Workout … 2017-07-1… O               Other          
#> # ℹ 386 more rows
#> # ℹ 56 more variables: venue_id <int>, venue_name <chr>, round <int>,
#> #   batter <chr>, batter_id <int>, batter_link <chr>,
#> #   top_seed_complete <lgl>, top_seed_started <lgl>,
#> #   top_seed_winner <lgl>, bonus_time <lgl>, home_run <lgl>,
#> #   tie_breaker <lgl>, is_home_run <lgl>, time_remaining <chr>,
#> #   is_bonus_time <lgl>, is_tie_breaker <lgl>, …
…
