…
## Examples

``` r
# \donttest{
  try(mlb_pbp(game_pk = 632970))
#> ── MLB Play-by-Play data from MLB.com ─────────────── baseballr 2.0.0 ──
#> ℹ Data updated: 2026-06-12 11:57:10 UTC
#> # A tibble: 336 × 151
#>    game_pk game_date  index startTime       endTime isPitch type  playId
#>      <dbl> <chr>      <int> <chr>           <chr>   <lgl>   <chr> <chr> 
#>  1  632970 2021-08-08     3 2021-08-09T02:… 2021-0… TRUE    pitch 932a8…
#>  2  632970 2021-08-08     2 2021-08-09T02:… 2021-0… TRUE    pitch e9403…
#>  3  632970 2021-08-08     1 2021-08-09T02:… 2021-0… TRUE    pitch 01e5d…
#>  4  632970 2021-08-08     0 2021-08-09T02:… 2021-0… FALSE   acti… NA    
#>  5  632970 2021-08-08     5 2021-08-09T02:… 2021-0… TRUE    pitch f0450…
#>  6  632970 2021-08-08     4 2021-08-09T02:… 2021-0… TRUE    pitch b4c15…
#>  7  632970 2021-08-08     3 2021-08-09T02:… 2021-0… TRUE    pitch e274e…
#>  8  632970 2021-08-08     2 2021-08-09T02:… 2021-0… TRUE    pitch d5dc0…
#>  9  632970 2021-08-08     1 2021-08-09T02:… 2021-0… TRUE    pitch ddbcc…
#> 10  632970 2021-08-08     0 2021-08-09T02:… 2021-0… TRUE    pitch 69a40…
#> # ℹ 326 more rows
#> # ℹ 143 more variables: pitchNumber <int>, details.description <chr>,
#> #   details.event <chr>, details.awayScore <int>,
#> #   details.homeScore <int>, details.isScoringPlay <lgl>,
#> #   details.hasReview <lgl>, details.code <chr>,
#> #   details.ballColor <chr>, details.isInPlay <lgl>,
#> #   details.isStrike <lgl>, details.isBall <lgl>, …
…
