…
## Examples

``` r
# \donttest{
  try(mlb_game_wp(game_pk = 531060))
#> ── MLB Game Win Probability data from MLB.com ─────── baseballr 2.0.0 ──
#> ℹ Data updated: 2026-06-08 03:20:15 UTC
#> # A tibble: 74 × 5
#>    home_team_win_probabi…¹ away_team_win_probab…² home_team_win_probab…³
#>                      <dbl>                  <dbl>                  <dbl>
#>  1                    52.2                   47.8                    2.2
#>  2                    53.8                   46.2                    1.6
#>  3                    52.6                   47.4                   -1.2
#>  4                    54.8                   45.2                    2.2
#>  5                    52.6                   47.4                   -2.2
#>  6                    51                     49                     -1.6
#>  7                    50                     50                     -1  
#>  8                    46.2                   53.8                   -3.8
#>  9                    49.7                   50.3                    3.5
#> 10                    52.8                   47.2                    3.1
#> # ℹ 64 more rows
#> # ℹ abbreviated names: ¹​home_team_win_probability,
#> #   ²​away_team_win_probability, ³​home_team_win_probability_added
#> # ℹ 2 more variables: at_bat_index <int>, leverage_index <dbl>
…
