…
## Examples

``` r
# \donttest{
  try(mlb_teams(season = 2021, sport_ids = c(1)))
#> ── MLB Teams data from MLB.com ────────────────────── baseballr 2.0.0 ──
#> ℹ Data updated: 2026-06-08 01:57:35 UTC
#> # A tibble: 30 × 33
#>    all_star_status team_id team_full_name       link    season team_code
#>    <chr>             <int> <chr>                <chr>    <int> <chr>    
#>  1 N                   133 Oakland Athletics    /api/v…   2021 oak      
#>  2 N                   134 Pittsburgh Pirates   /api/v…   2021 pit      
#>  3 N                   135 San Diego Padres     /api/v…   2021 sdn      
#>  4 N                   136 Seattle Mariners     /api/v…   2021 sea      
#>  5 N                   137 San Francisco Giants /api/v…   2021 sfn      
#>  6 N                   138 St. Louis Cardinals  /api/v…   2021 sln      
#>  7 N                   139 Tampa Bay Rays       /api/v…   2021 tba      
#>  8 N                   140 Texas Rangers        /api/v…   2021 tex      
#>  9 N                   141 Toronto Blue Jays    /api/v…   2021 tor      
#> 10 N                   142 Minnesota Twins      /api/v…   2021 min      
#> # ℹ 20 more rows
#> # ℹ 27 more variables: file_code <chr>, team_abbreviation <chr>,
#> #   team_name <chr>, location_name <chr>, first_year_of_play <chr>,
#> #   short_name <chr>, franchise_name <chr>, club_name <chr>,
#> #   active <lgl>, spring_league_id <int>, spring_league_name <chr>,
#> #   spring_league_link <chr>, spring_league_abbreviation <chr>,
#> #   venue_id <int>, venue_name <chr>, venue_link <chr>, …
…
