MLB Stats — mlb_stats • baseballr
…
    Examples

# \donttest{
  try(mlb_stats(stat_type = 'season', stat_group = 'hitting', season = 2021))
#> ── MLB Stats data from MLB.com ────────────────────── baseballr 2.0.0 ──
#> ℹ Data updated: 2026-06-08 11:09:28 UTC
#> # A tibble: 132 × 61
#>    total_splits season num_teams  rank   age games_played ground_outs
#>           <int> <chr>      <int> <int> <int>        <int>       <int>
#>  1          132 2021           2     1    28          148         141
#>  2          132 2021           1     2    37          143         131
#>  3          132 2021           1     3    22          151         160
#>  4          132 2021           1     4    34          121         141
#>  5          132 2021           1     5    22          161         161
#>  6          132 2021           2     6    32          120         140
#>  7          132 2021           1     7    28          141         112
#>  8          132 2021           1     8    28          123         163
#>  9          132 2021           1     9    29          138         117
#> 10          132 2021           2    10    29          155         156
#> # ℹ 122 more rows
#> # ℹ 54 more variables: air_outs <int>, runs <int>, doubles <int>,
#> #   triples <int>, home_runs <int>, strike_outs <int>,
#> #   base_on_balls <int>, intentional_walks <int>, hits <int>,
#> #   hit_by_pitch <int>, avg <chr>, at_bats <int>, obp <chr>, slg <chr>,
#> #   ops <chr>, caught_stealing <int>, stolen_bases <int>,
#> #   stolen_base_percentage <chr>, caught_stealing_percentage <chr>, …
…
