…
## Examples

``` r
# \donttest{
  try(mlb_schedule_postseason(season = 2021))
#> ── MLB Schedule - Post-season data from MLB.com ───── baseballr 2.0.0 ──
#> ℹ Data updated: 2026-06-12 11:24:13 UTC
#> # A tibble: 38 × 70
#>    date      total_items total_events total_games total_games_in_progr…¹
#>    <chr>           <int>        <int>       <int>                  <int>
#>  1 2021-10-…           1            0           1                      0
#>  2 2021-10-…           1            0           1                      0
#>  3 2021-10-…           2            0           2                      0
#>  4 2021-10-…           2            0           2                      0
#>  5 2021-10-…           4            0           4                      0
#>  6 2021-10-…           4            0           4                      0
#>  7 2021-10-…           4            0           4                      0
#>  8 2021-10-…           4            0           4                      0
#>  9 2021-10-…           2            0           2                      0
#> 10 2021-10-…           2            0           2                      0
#> # ℹ 28 more rows
#> # ℹ abbreviated name: ¹​total_games_in_progress
#> # ℹ 65 more variables: game_pk <int>, game_guid <chr>, link <chr>,
#> #   game_type <chr>, season <chr>, game_date <chr>,
#> #   official_date <chr>, is_tie <lgl>, is_featured_game <lgl>,
#> #   game_number <int>, public_facing <lgl>, double_header <chr>,
#> #   gameday_type <chr>, tiebreaker <chr>, calendar_event_id <chr>, …
…
