Find game_pk values for professional baseball games (major and minor leagues) — mlb_schedule • baseballr
…
15 = Class A Short Season 

5442 = Rookie Advanced 

16 = Rookie 

17 = Winter League 

    Examples

# \donttest{
  try(mlb_schedule(season = "2019"))
#> ── MLB Schedule data from MLB.com ─────────────────── baseballr 2.0.0 ──
#> ℹ Data updated: 2026-06-08 04:40:24 UTC
#> # A tibble: 3,010 × 73
#>    date      total_items total_events total_games total_games_in_progr…¹
#>    <chr>           <int>        <int>       <int>                  <int>
#>  1 2019-02-…           1            0           1                      0
#>  2 2019-02-…           4            0           4                      0
#>  3 2019-02-…           4            0           4                      0
#>  4 2019-02-…           4            0           4                      0
#>  5 2019-02-…           4            0           4                      0
#>  6 2019-02-…          16            0          16                      0
#>  7 2019-02-…          16            0          16                      0
#>  8 2019-02-…          16            0          16                      0
#>  9 2019-02-…          16            0          16                      0
#> 10 2019-02-…          16            0          16                      0
#> # ℹ 3,000 more rows
#> # ℹ abbreviated name: ¹​total_games_in_progress
#> # ℹ 68 more variables: game_pk <int>, game_guid <chr>, link <chr>,
#> #   game_type <chr>, season <chr>, game_date <chr>,
#> #   official_date <chr>, game_number <int>, public_facing <lgl>,
#> #   double_header <chr>, gameday_type <chr>, tiebreaker <chr>,
#> #   calendar_event_id <chr>, season_display <chr>, day_night <chr>, …
…
