Acquire time codes for Major and Minor League games — mlb_game_changes • baseballr
…
    Examples

# \donttest{
  try(mlb_game_changes(updated_since = "2021-08-10T19:08:24.000004Z", sport_id = 1))
#> ── MLB Game Changes data from MLB.com ─────────────── baseballr 1.3.0 ──
#> ℹ Data updated: 2022-10-05 17:36:19 UTC
#> # A tibble: 1,000 × 66
#>    date     total…¹ total…² total…³ total…⁴ game_pk link  game_…⁵ season
#>    <chr>      <int>   <int>   <int>   <int>   <int> <chr> <chr>   <chr> 
#>  1 1999-04…       1       0       1       0     916 /api… R       1999  
#>  2 1999-04…       1       0       1       0     200 /api… R       1999  
#>  3 1999-04…       1       0       1       0    2914 /api… R       1999  
#>  4 1999-04…       1       0       1       0    1404 /api… R       1999  
#>  5 1999-04…       1       0       1       0    1504 /api… R       1999  
#>  6 1999-04…       2       0       2       0     526 /api… R       1999  
#>  7 1999-04…       2       0       2       0     602 /api… R       1999  
#>  8 1999-05…       1       0       1       0     529 /api… R       1999  
#>  9 1999-05…       1       0       1       0     690 /api… R       1999  
#> 10 1999-05…       1       0       1       0    1317 /api… R       1999  
#> # … with 990 more rows, 57 more variables: game_date <chr>,
#> #   official_date <chr>, is_tie <lgl>, game_number <int>,
#> #   public_facing <lgl>, double_header <chr>, gameday_type <chr>,
#> #   tiebreaker <chr>, calendar_event_id <chr>, season_display <chr>,
#> #   day_night <chr>, description <chr>, scheduled_innings <int>,
#> #   reverse_home_away_status <lgl>, inning_break_length <int>,
#> #   games_in_series <int>, series_game_number <int>, …
…
