…
## Examples

``` r
# \donttest{
  try(mlb_draft_prospects(year = 2020))
#> ── MLB Draft Prospects data from MLB.com ──────────── baseballr 2.0.0 ──
#> ℹ Data updated: 2026-06-12 13:46:17 UTC
#> # A tibble: 2,554 × 102
#>    bis_player_id headshot_link       is_drafted is_pass year  pick_round
#>            <int> <chr>               <lgl>      <lgl>   <chr> <chr>     
#>  1       5012729 https://img.mlbsta… FALSE      FALSE   2020  NA        
#>  2        804300 https://img.mlbsta… FALSE      FALSE   2020  NA        
#>  3       5010766 https://img.mlbsta… FALSE      FALSE   2020  NA        
#>  4       5009176 https://img.mlbsta… TRUE       FALSE   2020  1         
#>  5            NA https://img.mlbsta… TRUE       FALSE   2020  1         
#>  6       5012222 https://img.mlbsta… FALSE      FALSE   2020  NA        
#>  7       5002839 https://img.mlbsta… FALSE      FALSE   2020  NA        
#>  8       5001752 https://img.mlbsta… FALSE      FALSE   2020  NA        
#>  9        767407 https://img.mlbsta… FALSE      FALSE   2020  NA        
#> 10        802464 https://img.mlbsta… FALSE      FALSE   2020  NA        
#> # ℹ 2,544 more rows
#> # ℹ 96 more variables: pick_number <int>, rank <int>,
#> #   scouting_report <chr>, blurb <chr>, home_city <chr>,
#> #   home_state <chr>, home_country <chr>, school_name <chr>,
#> #   school_school_class <chr>, school_country <chr>,
#> #   school_state <chr>, person_id <int>, person_full_name <chr>,
#> #   person_link <chr>, person_first_name <chr>, …
…
