…
## Examples

``` r
# \donttest{
 try(mlb_teams_stats_leaders(leader_categories='homeRuns',sport_id=1, season = 2021))
#> ── MLB Teams Stats Leaders data from MLB.com ──────── baseballr 2.0.0 ──
#> ℹ Data updated: 2026-06-08 01:57:35 UTC
#> # A tibble: 90 × 11
#>    leader_category  rank value season team_id team_name        team_link
#>    <chr>           <int> <chr> <chr>    <int> <chr>            <chr>    
#>  1 homeRuns            1 262   2021       141 Toronto Blue Ja… /api/v1/…
#>  2 homeRuns            2 241   2021       137 San Francisco G… /api/v1/…
#>  3 homeRuns            3 239   2021       144 Atlanta Braves   /api/v1/…
#>  4 homeRuns            4 237   2021       119 Los Angeles Dod… /api/v1/…
#>  5 homeRuns            5 228   2021       142 Minnesota Twins  /api/v1/…
#>  6 homeRuns            6 222   2021       113 Cincinnati Reds  /api/v1/…
#>  7 homeRuns            6 222   2021       147 New York Yankees /api/v1/…
#>  8 homeRuns            6 222   2021       139 Tampa Bay Rays   /api/v1/…
#>  9 homeRuns            9 221   2021       117 Houston Astros   /api/v1/…
#> 10 homeRuns           10 219   2021       111 Boston Red Sox   /api/v1/…
#> # ℹ 80 more rows
#> # ℹ 4 more variables: stat_group <chr>, total_splits <int>,
#> #   game_type_id <chr>, game_type_description <chr>
…
