…
## Examples

``` r
# \donttest{
 try(mlb_all_star_ballots(league_id = 103, season = 2021))
#> ── MLB All-Star Ballots data from MLB.com ─────────── baseballr 2.0.0 ──
#> ℹ Data updated: 2026-06-12 12:24:35 UTC
#> # A tibble: 136 × 49
#>    player_id full_name         link  first_name last_name primary_number
#>        <int> <chr>             <chr> <chr>      <chr>     <chr>         
#>  1    547989 José Abreu        /api… José       Abreu     79            
#>  2    596847 Ji Man Choi       /api… Ji Man     Choi      26            
#>  3    666915 Bobby Dalbec      /api… Robert     Dalbec    29            
#>  4    665489 Vladimir Guerrer… /api… Vladimir   Guerrero  27            
#>  5    493329 Yuli Gurriel      /api… Yulieski   Gurriel   10            
#>  6    663993 Nathaniel Lowe    /api… David      Lowe      31            
#>  7    641820 Trey Mancini      /api… Joseph     Mancini   34            
#>  8    647304 Josh Naylor       /api… Joshua-Do… Naylor    12            
#>  9    621566 Matt Olson        /api… Matthew    Olson     28            
#> 10    593934 Miguel Sanó       /api… Miguel     Sanó      22            
#> # ℹ 126 more rows
#> # ℹ 43 more variables: birth_date <chr>, current_age <int>,
#> #   birth_city <chr>, birth_country <chr>, height <chr>, weight <int>,
#> #   active <lgl>, use_name <chr>, use_last_name <chr>,
#> #   middle_name <chr>, boxscore_name <chr>, nick_name <chr>,
#> #   gender <chr>, name_matrilineal <chr>, is_player <lgl>,
#> #   is_verified <lgl>, pronunciation <chr>, last_played_date <chr>, …
…
