…
## Examples

``` r
# \donttest{
  try(mlb_schedule_games_tied(season = 2021))
#> ── MLB Schedule - Games Tied data from MLB.com ────── baseballr 2.0.0 ──
#> ℹ Data updated: 2026-06-08 11:09:24 UTC
#> # A tibble: 46 × 62
#>    date      total_items total_events total_games total_games_in_progr…¹
#>    <chr>           <int>        <int>       <int>                  <int>
#>  1 2021-02-…           1            0           1                      0
#>  2 2021-03-…           4            0           4                      0
#>  3 2021-03-…           4            0           4                      0
#>  4 2021-03-…           4            0           4                      0
#>  5 2021-03-…           4            0           4                      0
#>  6 2021-03-…           3            0           3                      0
#>  7 2021-03-…           3            0           3                      0
#>  8 2021-03-…           3            0           3                      0
#>  9 2021-03-…           2            0           2                      0
#> 10 2021-03-…           2            0           2                      0
#> # ℹ 36 more rows
#> # ℹ abbreviated name: ¹​total_games_in_progress
#> # ℹ 57 more variables: game_pk <int>, game_guid <chr>, link <chr>,
#> #   game_type <chr>, season <chr>, game_date <chr>,
#> #   official_date <chr>, is_tie <lgl>, game_number <int>,
#> #   public_facing <lgl>, double_header <chr>, gameday_type <chr>,
#> #   tiebreaker <chr>, calendar_event_id <chr>, season_display <chr>, …
…
