Get NCAA Baseball Rosters — ncaa_roster • baseballr
…
    Examples

# \donttest{
  try(ncaa_roster(team_id = 104, year = 2021))
#> ── NCAA Baseball Roster data from stats.ncaa.org ──── baseballr 1.5.0 ──
#> ℹ Data updated: 2023-03-21 18:47:14 UTC
#> # A tibble: 49 × 15
#>    player_…¹ class playe…² season number posit…³ playe…⁴ team_id team_…⁵
#>    <chr>     <chr> <chr>    <dbl> <chr>  <chr>   <chr>     <dbl> <chr>  
#>  1 Adamson,… Fr    2337999   2021 39     P       https:…     104 UC San…
#>  2 Arbolida… So    2488302   2021 38     UT      https:…     104 UC San…
#>  3 Arellano… So    2140271   2021 36     P       https:…     104 UC San…
#>  4 Barber, … Fr    2488298   2021 35     UT      https:…     104 UC San…
#>  5 Beer, Tr… So    2140229   2021 49     P       https:…     104 UC San…
#>  6 Benbrook… Fr    2338005   2021 51     P       https:…     104 UC San…
#>  7 Bloom, G… Jr    2343531   2021 27     INF     https:…     104 UC San…
#>  8 Boone, R… So    2140227   2021 10     P       https:…     104 UC San…
#>  9 Callahan… Fr    2337991   2021 23     P       https:…     104 UC San…
#> 10 Castanon… Jr    1996103   2021 3      INF     https:…     104 UC San…
#> # … with 39 more rows, 6 more variables: team_url <chr>,
#> #   conference_id <dbl>, conference <chr>, division <dbl>, year <dbl>,
#> #   season_id <dbl>, and abbreviated variable names ¹​player_name,
#> #   ²​player_id, ³​position, ⁴​player_url, ⁵​team_name
…
