Scrape NCAA baseball data (Division I, II, and III) — ncaa_scrape • baseballr
…
    Examples

# \donttest{
  try(ncaa_scrape(teamid=255, year=2013, type = "batting"))
#> ── NCAA Baseball Team Stats data from stats.ncaa.org ───────────────────
#> ℹ Data updated: 2022-04-12 04:25:27 UTC
#> # A tibble: 21 × 35
#>     year school      conference division Jersey Player Yr    Pos      GP
#>    <int> <chr>       <chr>         <dbl> <chr>  <chr>  <chr> <chr> <dbl>
#>  1  2013 Georgia Te… ACC               1 9      Murra… So    C        64
#>  2  2013 Georgia Te… ACC               1 10     Evans… Jr    C        64
#>  3  2013 Georgia Te… ACC               1 8      Wren,… Jr    OF       64
#>  4  2013 Georgia Te… ACC               1 3      Hyde,… Jr    INF      64
#>  5  2013 Georgia Te… ACC               1 32     Palka… Jr    1B       62
#>  6  2013 Georgia Te… ACC               1 31     Dove,… Sr    INF      61
#>  7  2013 Georgia Te… ACC               1 14     Gonza… Fr    INF      61
#>  8  2013 Georgia Te… ACC               1 6      Thoma… Sr    OF       53
#>  9  2013 Georgia Te… ACC               1 35     Sping… So    OF       50
#> 10  2013 Georgia Te… ACC               1 13     Smith… So    INF      45
#> # … with 11 more rows, and 26 more variables: GS <dbl>, BA <dbl>,
#> #   OBPct <dbl>, SlgPct <dbl>, R <dbl>, AB <dbl>, H <dbl>, `2B` <dbl>,
#> #   `3B` <dbl>, TB <dbl>, HR <dbl>, RBI <dbl>, BB <dbl>, HBP <dbl>,
#> #   SF <dbl>, SH <dbl>, K <dbl>, DP <dbl>, CS <dbl>, Picked <dbl>,
#> #   SB <dbl>, RBI2out <dbl>, teamid <dbl>, conference_id <int>,
#> #   player_id <int>, player_url <chr>
…
