Get NCAA Baseball Game Logs — ncaa_game_logs • baseballr
…
    Examples

# \donttest{
  try(ncaa_game_logs(player_id = 2113782, year = 2021, type = "pitching", span = "game"))
#> ── NCAA Baseball Game Logs data from stats.ncaa.org ────────────────────
#> ℹ Data updated: 2022-09-09 00:28:01 UTC
#> # A tibble: 44 × 38
#>    player_id player…¹ Date  Oppon…² Result   App     G    GS    IP    CG
#>        <dbl> <chr>    <chr> <chr>   <chr>  <dbl> <dbl> <dbl> <dbl> <dbl>
#>  1   2113782 Davitt,… 03/0… Michig… 2-4       NA    NA    NA  NA      NA
#>  2   2113782 Davitt,… 03/0… Michig… 8-3       NA    NA    NA  NA      NA
#>  3   2113782 Davitt,… 03/0… Michig… 0-7       NA    NA    NA  NA      NA
#>  4   2113782 Davitt,… 03/0… Michig… 4-11       1     1     1   3.1    NA
#>  5   2113782 Davitt,… 03/1… Ohio S… 4-0       NA    NA    NA  NA      NA
#>  6   2113782 Davitt,… 03/1… Ohio S… 4-7       NA    NA    NA  NA      NA
#>  7   2113782 Davitt,… 03/1… Nebras… 0-4       NA    NA    NA  NA      NA
#>  8   2113782 Davitt,… 03/1… Nebras… 3-1        1     1     1   6      NA
#>  9   2113782 Davitt,… 03/1… Nebras… 3-0       NA    NA    NA  NA      NA
#> 10   2113782 Davitt,… 03/2… Nebras… 8-10      NA    NA    NA  NA      NA
#> # … with 34 more rows, 28 more variables: H <dbl>, R <dbl>, ER <dbl>,
#> #   BB <dbl>, SO <dbl>, SHO <dbl>, BF <dbl>, `P-OAB` <dbl>,
#> #   `2B-A` <dbl>, `3B-A` <dbl>, Bk <dbl>, `HR-A` <dbl>, WP <dbl>,
#> #   HB <dbl>, IBB <dbl>, `Inh Run` <dbl>, `Inh Run Score` <dbl>,
#> #   SHA <dbl>, SFA <dbl>, Pitches <dbl>, GO <dbl>, FO <dbl>, W <dbl>,
#> #   L <dbl>, SV <dbl>, OrdAppeared <dbl>, KL <dbl>, pickoffs <chr>, and
#> #   abbreviated variable names ¹​player_name, ²​Opponent
…
