Generate run expectancy and related measures from Baseball Savant data — run_expectancy_code • baseballr
…
At the plate-appearance level the analogous state columns are named
base_out_state and next_base_out_state.

    Examples

# \donttest{
 try({
   df <- statcast_search(start_date = "2016-04-06", end_date = "2016-04-15", 
                         playerid = 621043, player_type = 'batter') 
   run_expectancy_code(df, level = "plate appearances")
 })
#> # A tibble: 159 × 133
#>    pitch_type game_date  release_speed release_pos_x release_pos_z
#>    <chr>      <date>             <dbl>         <dbl>         <dbl>
#>  1 FF         2016-04-06          92.8         -2.25          6.89
#>  2 FF         2016-04-06          91.1         -2.32          6.83
#>  3 SL         2016-04-06          80.2         -2.46          6.94
#>  4 FF         2016-04-06          94.5         -2.37          6.74
#>  5 FF         2016-04-06          94           -1.98          6.77
#>  6 FC         2016-04-06          92.6         -2.35          6.62
#>  7 CH         2016-04-06          91.7         -2.25          6.64
#>  8 CH         2016-04-06          86.1         -2.07          6.93
#>  9 SI         2016-04-06          91.4         -1.89          6.71
#> 10 SI         2016-04-06          91.6         -1.73          6.8 
#> # ℹ 149 more rows
#> # ℹ 128 more variables: player_name <chr>, batter <dbl>, pitcher <dbl>,
#> #   events <chr>, description <chr>, spin_dir <lgl>,
#> #   spin_rate_deprecated <lgl>, break_angle_deprecated <lgl>,
#> #   break_length_deprecated <lgl>, zone <dbl>, des <chr>,
#> #   game_type <chr>, stand <chr>, p_throws <chr>, home_team <chr>,
#> #   away_team <chr>, type <chr>, hit_location <int>, bb_type <chr>, …
…
