Query Statcast by Date Range and Players — statcast_search • baseballr
…
Returns a tibble with the same Statcast pitch-level columns as
statcast_search(), filtered to the requested pitcher. See the
statcast_search() return value for the full column-by-column reference.

    Examples

# \donttest{
  ### Harper
  try(statcast_search(start_date = "2022-10-06", 
                      end_date = "2022-10-16", 
                      playerid = 547180, 
                      player_type = 'batter'))
#> ── MLB Baseball Savant Statcast Search data from baseballsavant.mlb.com 
#> ℹ Data updated: 2026-06-08 04:41:38 UTC
#> # A tibble: 82 × 118
#>    pitch_type game_date  release_speed release_pos_x release_pos_z
#>    <chr>      <date>             <dbl>         <dbl>         <dbl>
#>  1 FF         2022-10-15          96.4         -2.61          5.49
#>  2 CU         2022-10-15          83.3         -2.7           5.36
#>  3 FF         2022-10-15          96.2         -2.72          5.57
#>  4 FF         2022-10-15          96.1         -2.67          5.39
#>  5 FF         2022-10-15          95.8         -2.62          5.45
#>  6 FC         2022-10-15          93.4         -1.05          6.88
#>  7 FC         2022-10-15          93.1         -1.16          6.87
#>  8 FF         2022-10-15          95.8         -1.47          5.64
#>  9 FC         2022-10-15          92.3         -1.1           6.86
#> 10 FF         2022-10-15          98.8          2.13          5.77
#> # ℹ 72 more rows
#> # ℹ 113 more variables: player_name <chr>, batter <dbl>, pitcher <dbl>,
#> #   events <chr>, description <chr>, spin_dir <lgl>,
#> #   spin_rate_deprecated <lgl>, break_angle_deprecated <lgl>,
#> #   break_length_deprecated <lgl>, zone <dbl>, des <chr>,
#> #   game_type <chr>, stand <chr>, p_throws <chr>, home_team <chr>,
#> #   away_team <chr>, type <chr>, hit_location <int>, bb_type <chr>, …
  ### Framber
  try(statcast_search(start_date = "2022-10-06", 
                      end_date = "2022-10-16", 
                      playerid = 664285, 
                      player_type = 'pitcher'))
#> ── MLB Baseball Savant Statcast Search data from baseballsavant.mlb.com 
#> ℹ Data updated: 2026-06-08 04:41:38 UTC
#> # A tibble: 92 × 118
#>    pitch_type game_date  release_speed release_pos_x release_pos_z
#>    <chr>      <date>             <dbl>         <dbl>         <dbl>
#>  1 CU         2022-10-13          78.1          1.09          6.06
#>  2 SI         2022-10-13          94.7          0.86          6.15
#>  3 CU         2022-10-13          79.4          0.95          6.02
#>  4 CU         2022-10-13          79.1          1.04          6.19
#>  5 CU         2022-10-13          81.4          0.93          6.06
#>  6 CU         2022-10-13          80.6          1.03          6.05
#>  7 SI         2022-10-13          95.4          0.71          6.19
#>  8 CU         2022-10-13          80.6          0.86          6.11
#>  9 CH         2022-10-13          91.6          0.73          6.19
#> 10 CU         2022-10-13          81            0.84          6.13
#> # ℹ 82 more rows
#> # ℹ 113 more variables: player_name <chr>, batter <dbl>, pitcher <dbl>,
#> #   events <chr>, description <chr>, spin_dir <lgl>,
#> #   spin_rate_deprecated <lgl>, break_angle_deprecated <lgl>,
#> #   break_length_deprecated <lgl>, zone <dbl>, des <chr>,
#> #   game_type <chr>, stand <chr>, p_throws <chr>, home_team <chr>,
#> #   away_team <chr>, type <chr>, hit_location <int>, bb_type <chr>, …
  ### Daily
  try(statcast_search(start_date = "2022-11-04", 
                      end_date = "2022-11-06"))
#> ── MLB Baseball Savant Statcast Search data from baseballsavant.mlb.com 
#> ℹ Data updated: 2026-06-08 04:41:38 UTC
#> # A tibble: 250 × 118
#>    pitch_type game_date  release_speed release_pos_x release_pos_z
#>    <chr>      <date>             <dbl>         <dbl>         <dbl>
#>  1 CU         2022-11-05          80.8          1.01          6.1 
#>  2 SL         2022-11-05          85.3          0.96          6.13
#>  3 SI         2022-11-05          95.7          0.73          6.3 
#>  4 SL         2022-11-05          84.5          1.09          6.04
#>  5 CU         2022-11-05          79.1          0.99          6.2 
#>  6 CH         2022-11-05          87.5          1.04          6.16
#>  7 SI         2022-11-05          94.3          0.99          6.26
#>  8 CU         2022-11-05          78.9          1.09          6.13
#>  9 CU         2022-11-05          81.1          1.25          6.18
#> 10 SI         2022-11-05          95.7          0.62          6.34
#> # ℹ 240 more rows
#> # ℹ 113 more variables: player_name <chr>, batter <dbl>, pitcher <dbl>,
#> #   events <chr>, description <chr>, spin_dir <lgl>,
#> #   spin_rate_deprecated <lgl>, break_angle_deprecated <lgl>,
#> #   break_length_deprecated <lgl>, zone <dbl>, des <chr>,
#> #   game_type <chr>, stand <chr>, p_throws <chr>, home_team <chr>,
#> #   away_team <chr>, type <chr>, hit_location <int>, bb_type <chr>, …
…
