…
## Examples

``` r
# \donttest{
  try(statcast_leaderboards(leaderboard = "expected_statistics", year = 2018))
#> ── MLB Baseball Savant Statcast Leaderboards data from baseballsavant.ml
#> ℹ Data updated: 2026-06-09 20:45:06 UTC
#> # A tibble: 249 × 14
#>     year `last_name, first_name` player_id    pa   bip    ba est_ba
#>    <int> <chr>                       <int> <int> <int> <dbl>  <dbl>
#>  1  2018 Lindor, Francisco          596019   745   560 0.277  0.289
#>  2  2018 Turner, Trea               607208   740   534 0.271  0.273
#>  3  2018 Machado, Manny             592518   709   533 0.297  0.284
#>  4  2018 Hernández, César           514917   708   454 0.253  0.242
#>  5  2018 Merrifield, Whit           593160   707   526 0.304  0.281
#>  6  2018 Freeman, Freddie           518692   707   492 0.309  0.295
#>  7  2018 Bregman, Alex              608324   705   512 0.286  0.267
#>  8  2018 Stanton, Giancarlo         519317   705   416 0.266  0.237
#>  9  2018 Markakis, Nick             455976   705   552 0.297  0.293
#> 10  2018 Semien, Marcus             543760   703   510 0.255  0.245
#> # ℹ 239 more rows
#> # ℹ 7 more variables: est_ba_minus_ba_diff <dbl>, slg <dbl>,
#> #   est_slg <dbl>, est_slg_minus_slg_diff <dbl>, woba <dbl>,
#> #   est_woba <dbl>, est_woba_minus_woba_diff <dbl>
  try(statcast_leaderboards(leaderboard = "arm_strength", year = 2020))
#> ── MLB Baseball Savant Statcast Leaderboards data from baseballsavant.ml
#> ℹ Data updated: 2026-06-09 20:45:06 UTC
#> # A tibble: 183 × 27
#>     year fielder_name     player_id team_name primary_position
#>    <dbl> <chr>                <int> <lgl>                <int>
#>  1  2020 Santana, Carlos     467793 NA                       3
#>  2  2020 Freeman, Freddie    518692 NA                       3
#>  3  2020 Muncy, Max          571970 NA                       3
#>  4  2020 Olson, Matt         621566 NA                       3
#>  5  2020 Dozier, Hunter      641531 NA                       3
#>  6  2020 Canó, Robinson      429664 NA                       4
#>  7  2020 Solano, Donovan     456781 NA                       4
#>  8  2020 Altuve, Jose        514888 NA                       4
#>  9  2020 Hernández, César    514917 NA                       4
#> 10  2020 Segura, Jean        516416 NA                       4
#> # ℹ 173 more rows
#> # ℹ 22 more variables: primary_position_name <chr>, total_throws <int>,
#> #   total_throws_1b <int>, total_throws_2b <int>,
#> #   total_throws_3b <int>, total_throws_ss <int>,
#> #   total_throws_lf <int>, total_throws_cf <int>,
#> #   total_throws_rf <int>, total_throws_inf <int>,
#> #   total_throws_of <int>, max_arm_strength <dbl>, arm_1b <dbl>, …
…
