Query Baseball Savant Leaderboards — statcast_leaderboards • baseballr
…
    Examples

# \donttest{
  try(statcast_leaderboards(leaderboard = "exit_velocity_barrels", year = 2018))
#> ── MLB Baseball Savant Statcast Leaderboards data from baseballsavant.ml
#> ℹ Data updated: 2022-10-05 17:37:51 UTC
#> # A tibble: 249 × 19
#>     year last_…¹ first…² playe…³ attem…⁴ avg_h…⁵ angle…⁶ max_h…⁷ avg_h…⁸
#>    <dbl> <chr>   <chr>     <int>   <int>   <dbl>   <dbl>   <dbl>   <dbl>
#>  1  2018 Peraza  José     606299     570    15      37.7    109.    85.8
#>  2  2018 Lindor  Franci…  596019     560    14.7    34.3    114.    90.6
#>  3  2018 Markak… Nick     455976     552    10.1    38.4    109.    90.6
#>  4  2018 Turner  Trea     607208     534     9.3    28.8    112.    89.1
#>  5  2018 Machado Manny    592518     533    14.4    33.8    115.    91.6
#>  6  2018 Segura  Jean     516416     527     7.8    29.8    112.    87.7
#>  7  2018 Albies  Ozzie    645277     527    16.1    34      110.    86.8
#>  8  2018 Merrif… Whit     593160     526    16.9    40.7    106.    87  
#>  9  2018 Inciar… Ender    542255     519    10.9    32.6    105     84.9
#> 10  2018 Brantl… Michael  488726     517     9.5    38.1    109.    90.2
#> # … with 239 more rows, 10 more variables: fbld <dbl>, gb <dbl>,
#> #   max_distance <int>, avg_distance <int>, avg_hr_distance <int>,
#> #   ev95plus <int>, ev95percent <dbl>, barrels <int>,
#> #   brl_percent <dbl>, brl_pa <dbl>, and abbreviated variable names
#> #   ¹​last_name, ²​first_name, ³​player_id, ⁴​attempts, ⁵​avg_hit_angle,
#> #   ⁶​anglesweetspotpercent, ⁷​max_hit_speed, ⁸​avg_hit_speed
…
