NCAA Scraping • baseballr
…
From the NCAA website:

try(ncaa_teams(year = most_recent_ncaa_baseball_season(), division = "1"))
#> ── NCAA Baseball Teams data from stats.ncaa.org ───── baseballr 2.0.0 ──
#> ℹ Data updated: 2026-06-08 03:24:45 UTC
#> # A tibble: 308 × 9
#>    team_id team_name    team_url conference_id conference division  year
#>    <chr>   <chr>        <chr>    <chr>         <chr>      <chr>    <dbl>
#>  1 NA      Boston Coll… /teams/… 821           ACC        1         2026
#>  2 NA      California   /teams/… 821           ACC        1         2026
#>  3 NA      Clemson      /teams/… 821           ACC        1         2026
#>  4 NA      Duke         /teams/… 821           ACC        1         2026
#>  5 NA      Florida St.  /teams/… 821           ACC        1         2026
#>  6 NA      Georgia Tech /teams/… 821           ACC        1         2026
#>  7 NA      Louisville   /teams/… 821           ACC        1         2026
#>  8 NA      Miami (FL)   /teams/… 821           ACC        1         2026
#>  9 NA      NC State     /teams/… 821           ACC        1         2026
#> 10 NA      North Carol… /teams/… 821           ACC        1         2026
#> # ℹ 298 more rows
#> # ℹ 2 more variables: season_id <chr>, season_team_id <chr>
…
